{
  "count": 14,
  "next": "https://hub.docker.com/v2/namespaces/datadog/repositories/agent-package/tags?page=2\u0026page_size=10",
  "previous": null,
  "results": [
    {
      "creator": 2245042,
      "id": 643192418,
      "images": [],
      "last_updated": "2024-07-29T11:54:59.735885Z",
      "last_updater": 2245042,
      "last_updater_username": "packagedatadoghq",
      "name": "latest",
      "repository": 23740770,
      "full_size": 378823666,
      "v2": true,
      "tag_status": "active",
      "tag_last_pulled": "2024-08-01T19:27:52.201668Z",
      "tag_last_pushed": "2024-07-29T11:54:59.735885Z",
      "media_type": "application/vnd.oci.image.index.v1+json",
      "content_type": "image",
      "digest": "sha256:eaa16c703cac29f77a96a3f6c9e78e6d7b5b6d6d4ecbdcafb546f54bb4411b10"
    },
    {
      "creator": 2245042,
      "id": 718028799,
      "images": [],
      "last_updated": "2024-07-29T11:56:06.016921Z",
      "last_updater": 2245042,
      "last_updater_username": "packagedatadoghq",
      "name": "7",
      "repository": 23740770,
      "full_size": 378823666,
      "v2": true,
      "tag_status": "active",
      "tag_last_pulled": "2024-08-01T19:27:52.201668Z",
      "tag_last_pushed": "2024-07-29T11:56:06.016921Z",
      "media_type": "application/vnd.oci.image.index.v1+json",
      "content_type": "image",
      "digest": "sha256:eaa16c703cac29f77a96a3f6c9e78e6d7b5b6d6d4ecbdcafb546f54bb4411b10"
    },
    {
      "creator": 2245042,
      "id": 727880349,
      "images": [],
      "last_updated": "2024-07-29T11:55:37.278533Z",
      "last_updater": 2245042,
      "last_updater_username": "packagedatadoghq",
      "name": "7.55.2-1",
      "repository": 23740770,
      "full_size": 378823666,
      "v2": true,
      "tag_status": "active",
      "tag_last_pulled": "2024-08-01T19:27:52.201668Z",
      "tag_last_pushed": "2024-07-29T11:55:37.278533Z",
      "media_type": "application/vnd.oci.image.index.v1+json",
      "content_type": "image",
      "digest": "sha256:eaa16c703cac29f77a96a3f6c9e78e6d7b5b6d6d4ecbdcafb546f54bb4411b10"
    },
    {
      "creator": 2245042,
      "id": 718027227,
      "images": [],
      "last_updated": "2024-07-29T11:55:16.705072Z",
      "last_updater": 2245042,
      "last_updater_username": "packagedatadoghq",
      "name": "7.55",
      "repository": 23740770,
      "full_size": 378823666,
      "v2": true,
      "tag_status": "active",
      "tag_last_pulled": "2024-08-01T19:27:52.201668Z",
      "tag_last_pushed": "2024-07-29T11:55:16.705072Z",
      "media_type": "application/vnd.oci.image.index.v1+json",
      "content_type": "image",
      "digest": "sha256:eaa16c703cac29f77a96a3f6c9e78e6d7b5b6d6d4ecbdcafb546f54bb4411b10"
    },
    {
      "creator": 2245042,
      "id": 719785876,
      "images": [],
      "last_updated": "2024-07-15T12:53:31.011023Z",
      "last_updater": 2245042,
      "last_updater_username": "packagedatadoghq",
      "name": "7.55.1-1",
      "repository": 23740770,
      "full_size": 377554862,
      "v2": true,
      "tag_status": "active",
      "tag_last_pulled": "2024-07-29T12:56:26.326267Z",
      "tag_last_pushed": "2024-07-15T12:53:31.011023Z",
      "media_type": "application/vnd.oci.image.index.v1+json",
      "content_type": "image",
      "digest": "sha256:e585567c01d21d47864622f564be2f0cede4e5275b8fc007ceb1b637cd08f0ac"
    },
    {
      "creator": 2245042,
      "id": 718027911,
      "images": [],
      "last_updated": "2024-07-11T15:02:35.179245Z",
      "last_updater": 2245042,
      "last_updater_username": "packagedatadoghq",
      "name": "7.55.0-1",
      "repository": 23740770,
      "full_size": 377557948,
      "v2": true,
      "tag_status": "active",
      "tag_last_pulled": "2024-07-17T09:03:19.561168Z",
      "tag_last_pushed": "2024-07-11T15:02:35.179245Z",
      "media_type": "application/vnd.oci.image.index.v1+json",
      "content_type": "image",
      "digest": "sha256:d2a0d394247a02e4c650b4e2628cae3ffbb904f6e1ffbec2b6cfb9b02f97141b"
    },
    {
      "creator": 2245042,
      "id": 701651661,
      "images": [],
      "last_updated": "2024-06-19T06:31:56.458888Z",
      "last_updater": 2245042,
      "last_updater_username": "packagedatadoghq",
      "name": "7.54.1-1",
      "repository": 23740770,
      "full_size": 380071708,
      "v2": true,
      "tag_status": "inactive",
      "tag_last_pulled": "2024-07-12T12:34:37.389564Z",
      "tag_last_pushed": "2024-06-19T06:31:56.458888Z",
      "media_type": "application/vnd.oci.image.index.v1+json",
      "content_type": "image",
      "digest": "sha256:10be2242b272f110ecd170f644391a481cb357b3567528b9b098e56386648c4f"
    },
    {
      "creator": 2245042,
      "id": 653326819,
      "images": [],
      "last_updated": "2024-05-30T11:38:27.887937Z",
      "last_updater": 2245042,
      "last_updater_username": "packagedatadoghq",
      "name": "7.53.0-1",
      "repository": 23740770,
      "full_size": 370993659,
      "v2": true,
      "tag_status": "inactive",
      "tag_last_pulled": "2024-07-29T12:37:09.145068Z",
      "tag_last_pushed": "2024-05-30T11:38:27.887937Z",
      "media_type": "application/vnd.oci.image.index.v1+json",
      "content_type": "image",
      "digest": "sha256:e3dbce5a314ad09c13b467bb7c1a7641061db6295e868dea3c3dc1fc1eae8fa3"
    },
    {
      "creator": 2245042,
      "id": 681335904,
      "images": [
        {
          "architecture": "",
          "features": "",
          "variant": null,
          "digest": "sha256:d20eb866e0d0f7dd0bb3747643f72dc0636d94da6a7a0f41b87051a7fc0c74f6",
          "os": "",
          "os_features": "",
          "os_version": null,
          "size": 312062730,
          "status": "active",
          "last_pulled": "2024-08-01T01:54:55.893485Z",
          "last_pushed": "2024-05-29T16:43:20.589862Z"
        },
        {
          "architecture": "",
          "features": "",
          "variant": null,
          "digest": "sha256:477ad8c756d725963344b8189db8530c4c7d0d59d7b7a18f6f91c33f40bfe27b",
          "os": "",
          "os_features": "",
          "os_version": null,
          "size": 243585505,
          "status": "active",
          "last_pulled": "2024-07-29T12:37:09.330988Z",
          "last_pushed": "2024-05-29T16:43:19.762226Z"
        }
      ],
      "last_updated": "2024-05-29T16:43:20.709781Z",
      "last_updater": 2245042,
      "last_updater_username": "packagedatadoghq",
      "name": "7.54.0-crash-1",
      "repository": 23740770,
      "full_size": 312062730,
      "v2": true,
      "tag_status": "active",
      "tag_last_pulled": "2024-08-01T01:54:55.893485Z",
      "tag_last_pushed": "2024-05-29T16:43:20.709781Z",
      "media_type": "application/vnd.oci.image.index.v1+json",
      "content_type": "image",
      "digest": "sha256:a18dde5a0f29baea5d116120ae6fba02a06f3c0ed858ba93ebb868f744ceff8a"
    },
    {
      "creator": 2245042,
      "id": 681328833,
      "images": [],
      "last_updated": "2024-05-29T16:30:23.003348Z",
      "last_updater": 2245042,
      "last_updater_username": "packagedatadoghq",
      "name": "7.54.0-large-1",
      "repository": 23740770,
      "full_size": 380097057,
      "v2": true,
      "tag_status": "inactive",
      "tag_last_pulled": "2024-07-29T12:37:09.207962Z",
      "tag_last_pushed": "2024-05-29T16:30:23.003348Z",
      "media_type": "application/vnd.oci.image.index.v1+json",
      "content_type": "image",
      "digest": "sha256:1378e457df6dbdd50055985666de10c65fdcf31095b4ce60fe348410807b99ae"
    }
  ]
}
